0 15 0 14 14 12 12 31 11 15 0 0 0 1 0 4 14 16 
23 10 14 4 16 0 20 0 30 0 29 12 0 24 31 11 28 23 
15 0 10 0 7 11 7 10 24 1 0 0 4 6 15 24 16 2 
0 0 17 16 0 0 4 17 11 11 31 2 0 0 13 11 18 19 
4 10 12 12 2 4 11 20 11 15 0 0 11 0 17 5 12 31 
0 0 16 0 19 5 11 14 0 8 6 2 7 2 21 0 15 11 
16 4 13 15 13 15 26 2 14 1 15 4 3 24 11 0 19 0 
19 19 0 6 24 8 22 28 9 10 11 3 31 0 0 0 8 12 
2 14 0 10 8 0 12 31 31 0 15 0 21 31 26 30 20 31 
29 18 31 31 16 31 5 14 12 0 19 30 28 26 18 1 0 17 
0 0 0 4 0 17 4 0 28 18 31 1 16 11 0 5 0 4 
15 10 0 21 0 24 17 12 31 0 3 28 10 4 15 11 21 0 
0 31 16 23 14 31 17 4 9 18 31 22 31 4 13 18 4 8 
31 0 11 5 28 0 15 31 0 28 4 9 12 22 16 0 15 4 
10 0 31 0 4 11 0 16 31 1 29 26 31 0 0 0 16 4 
28 15 11 0 5 0 13 16 12 0 28 0 0 12 4 30 29 27 
18 0 3 12 19 1 18 6 20 9 3 8 7 0 0 0 11 14 
31 12 19 9 24 0 1 0 23 16 0 0 14 6 11 0 13 12 
13 12 11 16 20 3 9 24 10 31 2 0 4 26 20 2 14 1 
3 1 29 17 18 3 15 31 5 0 24 28 10 0 31 4 11 11 
31 16 2 4 15 16 20 10 5 0 11 0 11 0 10 16 4 26 
9 10 5 15 15 7 23 0 0 0 20 19 0 19 12 3 0 0 
12 13 16 16 26 31 8 31 0 0 20 2 0 11 29 31 23 10 
31 15 18 14 23 0 29 0 5 2 2 11 12 11 19 11 4 16 
13 9 6 5 12 11 14 4 3 7 15 0 6 31 14 0 11 16 
31 0 9 19 25 0 31 0 4 20 0 4 10 12 28 28 4 24 
31 4 13 12 25 3 13 9 0 31 5 0 12 11 24 5 20 11 
18 19 31 11 28 4 31 16 15 18 20 12 25 11 0 27 5 31 
31 5 4 0 31 17 20 14 5 22 3 11 8 5 15 0 7 0 
13 3 29 12 31 20 9 1 13 12 15 0 11 13 17 20 30 26 
30 6 0 6 9 24 0 4 26 12 31 11 6 7 4 13 23 21 
1 16 21 20 4 4 3 11 8 26 7 0 12 3 1 9 24 0 
31 3 8 4 2 12 4 6 9 12 20 26 27 27 31 27 31 12 
13 28 11 29 3 17 27 31 9 6 11 20 25 0 28 3 14 10 
30 0 10 0 11 1 3 12 8 11 0 11 17 11 11 10 27 0 
28 28 16 12 13 4 31 31 0 0 28 8 15 18 18 15 17 26 
21 0 0 0 13 24 30 15 19 31 8 15 0 0 7 11 31 26 
20 24 19 0 8 0 29 3 0 18 27 0 17 17 16 18 17 0 
29 12 31 15 26 15 19 8 0 18 11 3 31 11 29 15 28 31 
13 26 15 5 27 10 12 20 27 0 24 16 16 20 15 31 8 10 
22 31 4 11 23 9 1 10 28 17 0 31 29 12 22 11 19 13 
13 31 31 31 15 15 31 0 20 19 31 0 8 11 18 13 0 3 
31 31 31 30 31 4 31 17 31 31 14 12 28 0 12 5 10 19 
25 18 14 0 3 25 13 4 15 30 2 6 27 26 7 13 14 16 
4 11 20 25 0 31 14 0 31 28 7 31 11 4 16 31 31 10 
31 17 2 24 1 28 13 28 31 3 21 13 10 11 29 3 27 31 
15 0 5 11 16 4 7 0 13 0 10 14 19 3 5 16 31 26 
18 7 22 17 15 0 17 26 11 11 3 0 21 8 31 10 15 28 
16 30 27 12 15 31 26 31 12 11 17 13 18 31 16 10 28 20 
31 5 13 13 14 17 22 16 14 11 17 9 16 31 14 12 4 12 
23 8 12 28 12 11 18 9 21 3 11 14 31 0 25 11 23 11 
8 31 31 6 3 4 5 16 14 10 12 23 25 28 18 14 18 1 
1 31 4 2 31 10 20 31 9 3 6 11 18 13 15 2 14 20 
19 27 19 3 18 4 31 31 30 11 19 5 20 13 20 25 14 19 
16 19 7 11 18 4 8 1 4 11 16 21 8 11 31 0 15 13 
12 6 9 15 16 15 19 21 5 2 26 12 11 10 31 5 5 20 
4 27 11 28 14 1 18 0 16 24 8 29 31 8 12 16 21 30 
29 31 6 11 14 2 19 9 24 10 3 14 17 18 12 10 31 16 
18 31 11 17 13 31 28 25 31 26 31 31 16 22 31 24 23 11 
25 17 28 0 4 6 12 0 17 18 20 7 2 19 25 0 28 17 
24 16 26 2 13 26 4 28 8 20 26 11 4 31 3 26 29 26 
0 3 0 2 6 0 4 14 20 4 19 9 0 19 19 20 0 0 
19 17 8 20 0 23 12 15 10 9 16 29 12 12 26 3 11 11 
29 18 14 3 31 0 17 19 11 0 4 31 31 10 29 12 27 5 
26 0 10 13 9 12 31 31 18 18 17 10 7 13 4 13 14 19 
9 4 25 5 23 20 20 12 2 9 19 12 11 0 18 8 14 9 
19 10 16 20 4 7 31 12 20 19 11 3 15 19 11 3 31 16 
20 10 22 31 4 15 11 0 11 23 30 11 27 6 9 4 31 31 
6 13 13 22 31 11 2 13 13 12 15 1 17 31 17 1 7 16 
31 19 11 15 7 12 19 18 4 3 8 19 12 20 20 31 24 3 
0 4 6 19 8 4 29 31 16 4 12 25 31 18 15 18 16 17 
0 18 12 20 20 17 31 3 15 2 5 13 28 10 31 24 18 12 
7 26 28 12 28 3 27 31 15 19 6 11 13 15 19 10 14 15 
7 19 31 14 31 15 6 30 31 15 2 25 26 21 31 9 12 13 
12 0 31 15 4 17 0 15 25 20 31 11 31 15 5 12 11 17 
4 12 17 9 3 4 6 7 13 16 1 8 21 13 18 0 31 11 
16 15 18 20 29 31 3 3 16 15 15 4 11 12 16 0 10 19 
4 18 31 22 11 31 27 4 12 17 23 21 20 9 21 2 27 14 
16 31 5 15 19 31 20 11 13 20 11 21 14 20 19 16 19 4 
31 11 12 13 10 11 27 4 28 18 9 28 31 0 31 4 11 13 
4 6 20 26 6 0 13 23 20 5 15 12 15 19 14 11 11 19 
31 4 20 17 17 5 31 11 20 31 23 16 13 19 8 28 17 13 
18 16 30 0 5 0 15 23 15 31 0 30 10 24 31 12 13 14 
28 9 12 3 12 19 1 20 20 27 15 20 4 13 16 14 31 22 
12 15 13 20 16 31 31 10 8 0 7 11 23 2 31 17 10 4 
20 3 12 5 26 8 23 0 31 29 0 15 16 12 21 31 29 13 
6 23 13 0 23 26 12 15 15 13 10 20 31 12 19 12 31 22 
11 31 16 4 13 16 31 16 25 16 15 5 20 1 23 11 17 19 
16 9 13 30 14 31 15 15 3 17 29 0 4 15 31 11 7 11 
0 11 19 12 10 15 13 3 11 5 5 18 31 12 29 4 20 3 
29 0 8 5 3 0 23 8 15 4 3 12 0 19 31 3 17 7 
28 29 31 27 8 16 15 9 11 24 12 13 24 25 13 18 12 17 
20 16 19 31 4 1 17 0 20 16 31 16 4 10 31 16 16 13 
31 0 31 24 3 8 4 0 21 11 31 11 20 19 22 16 31 3 
18 4 6 7 15 4 0 31 19 11 17 5 11 19 28 19 4 15 
2 16 8 14 4 7 15 5 11 27 3 5 17 2 14 31 31 1 
23 1 2 31 18 31 13 16 17 21 7 4 13 4 4 10 0 3 
8 31 15 21 3 31 31 0 14 16 29 17 12 8 17 3 11 18 
19 15 12 4 27 31 17 12 8 14 12 12 11 23 17 21 31 9 
18 9 11 20 27 19 17 17 27 15 21 3 19 26 13 20 3 28 
12 17 11 30 4 4 12 10 15 16 12 1 19 20 19 17 14 9 
11 4 17 9 23 0 31 14 10 20 19 26 21 12 3 18 17 4 
4 15 13 21 17 26 9 14 16 19 31 12 19 8 15 0 31 17 
19 23 23 10 18 8 20 3 11 30 15 17 14 31 13 14 19 0 
11 15 26 11 27 15 28 29 2 28 14 31 12 12 22 18 12 0 
10 17 27 31 2 22 6 12 15 30 13 14 19 3 18 22 7 31 
15 12 31 11 16 28 11 7 15 17 31 31 10 20 31 12 18 17 
16 6 18 9 21 31 16 31 31 17 18 15 11 16 30 19 21 30 
23 17 14 26 6 7 10 6 15 2 28 15 31 31 11 20 14 26 
31 13 13 4 11 12 2 10 19 24 30 31 12 16 31 16 1 16 
31 18 27 28 15 9 16 14 10 20 24 11 11 6 7 13 31 25 
19 5 18 13 15 8 12 13 13 16 23 10 15 26 15 16 18 13 
0 10 28 31 20 14 13 31 27 31 0 17 23 26 3 20 15 31 
30 11 18 12 15 21 18 31 12 8 8 18 11 16 0 16 20 27 
31 27 16 15 26 13 5 25 20 2 20 11 16 19 24 7 13 29 
17 11 23 12 16 3 20 25 30 11 11 12 18 11 23 21 17 19 
11 20 25 31 31 8 15 15 26 31 31 13 28 28 28 27 12 15 
28 15 11 0 13 16 20 4 6 14 20 3 16 19 28 4 17 13 
31 10 20 6 31 15 4 14 17 10 13 4 31 31 12 19 31 11 
16 3 16 31 19 31 31 25 31 15 16 15 29 12 10 13 14 19 
31 4 3 11 17 5 4 11 3 4 15 20 31 28 29 11 24 21 
12 24 16 5 12 2 3 9 16 13 12 14 10 13 31 13 11 15 
28 31 31 4 0 27 23 15 22 30 11 15 15 11 26 9 12 27 
18 18 16 14 19 1 10 31 30 25 31 8 10 6 18 31 6 4 
31 16 15 9 21 12 9 31 10 27 31 5 12 13 11 7 11 21 
26 11 0 13 26 11 13 1 7 16 12 10 3 14 22 15 28 12 
28 15 20 6 28 3 17 13 14 12 14 2 31 27 10 11 31 23 
1 8 5 9 19 8 31 14 14 31 16 26 15 13 25 10 26 6 
1 19 22 20 16 10 23 10 24 0 31 11 19 23 15 28 12 15 
11 4 12 13 20 3 24 10 31 12 12 5 5 7 8 19 28 17 
15 2 13 16 28 31 17 5 11 31 11 31 6 15 15 16 15 19 
16 16 14 1 20 16 3 15 31 31 23 19 22 5 8 31 17 31 
20 8 9 15 13 31 4 9 3 23 11 31 28 3 13 11 16 17 
28 22 23 4 13 10 31 26 31 31 23 11 21 10 17 7 28 21 
31 4 10 4 6 31 27 10 10 4 31 6 12 4 16 4 27 15 
19 11 12 5 24 24 18 0 12 20 31 31 31 6 21 6 15 12 
31 21 10 9 31 31 17 12 11 19 16 30 10 11 13 2 28 24 
1 0 20 11 28 4 5 13 19 2 18 31 16 2 12 5 14 18 
21 19 14 24 29 3 12 0 17 11 21 10 7 16 31 12 3 16 
4 11 18 3 23 19 11 23 28 3 4 12 15 16 9 31 12 28 
17 18 15 5 21 13 24 22 11 14 13 31 31 10 31 13 2 10 
20 16 11 31 12 10 20 31 11 21 16 13 12 31 15 31 17 7 
14 31 10 31 31 2 9 12 31 16 11 21 13 24 12 17 26 6 
31 20 5 0 25 19 12 0 27 15 8 4 4 12 13 27 31 13 
20 15 9 12 23 13 31 4 15 30 17 12 9 19 5 14 17 16 
15 8 15 4 20 15 14 22 28 17 20 15 20 26 10 19 4 8 
23 3 17 15 12 4 15 15 13 13 16 15 15 12 16 15 13 9 
17 21 10 3 18 31 18 13 16 11 15 1 0 31 19 4 15 3 
0 30 18 13 11 0 31 4 4 7 17 4 31 19 12 12 26 22 
16 31 18 0 12 10 12 27 14 22 15 3 3 8 19 31 5 18 
17 3 11 11 15 10 31 15 17 4 4 16 16 17 13 24 16 12 
23 19 16 19 14 15 5 13 25 17 20 4 12 16 24 10 13 19 
28 18 31 31 12 12 19 11 11 2 19 4 12 16 13 5 28 17 
13 4 15 28 29 19 21 11 25 31 20 29 24 19 19 31 29 25 
6 0 26 23 29 17 12 20 10 28 11 16 30 21 1 15 30 13 
13 12 18 25 22 18 28 15 31 23 16 23 30 19 26 20 31 23 
15 16 4 8 12 13 18 31 26 25 21 1 20 16 4 11 14 23 
16 31 14 12 13 16 31 21 18 7 25 23 15 12 28 17 19 19 
2 8 2 11 16 19 11 8 9 15 26 19 31 23 31 8 31 20 
26 19 22 30 17 28 15 0 12 15 22 5 16 14 31 10 19 31 
