0 0 3 0 31 28 20 0 4 0 1 31 3 14 29 0 1 11 
4 0 0 17 0 0 14 0 0 3 4 10 3 0 28 3 13 20 
25 0 11 3 5 5 0 1 31 0 0 0 18 0 14 26 1 8 
8 22 3 12 16 0 14 0 16 10 1 31 0 31 0 0 12 15 
15 7 31 7 0 31 7 0 0 1 26 22 4 0 1 31 14 11 
25 31 9 2 11 19 31 11 31 0 13 31 0 0 10 0 0 1 
31 0 5 4 17 20 3 0 16 0 13 10 16 0 2 4 3 26 
8 0 16 0 0 1 3 7 15 0 31 3 17 15 0 0 13 1 
10 0 20 11 3 0 31 0 1 0 0 0 22 3 3 0 1 0 
29 4 31 5 13 0 0 8 4 30 0 0 2 5 15 0 2 0 
11 0 28 2 7 1 15 0 31 0 20 31 2 23 0 15 0 0 
31 8 31 15 0 17 12 4 11 0 25 0 0 12 0 0 31 17 
21 0 2 29 19 17 0 0 31 0 31 0 0 22 0 0 0 31 
20 26 12 12 10 0 19 31 27 6 12 0 3 5 16 0 31 0 
31 19 0 5 11 6 21 0 3 2 4 14 11 0 0 28 20 0 
11 0 4 13 14 27 0 23 25 0 7 0 16 4 31 29 19 16 
3 12 0 0 23 0 21 17 1 2 13 0 23 0 16 19 0 14 
3 4 26 14 17 6 31 11 0 4 12 0 0 0 12 19 15 7 
14 11 16 14 9 0 3 13 14 0 28 0 26 1 15 11 16 5 
0 1 16 5 9 0 0 31 6 6 11 1 0 0 11 3 25 1 
2 0 16 10 4 31 0 0 18 12 18 10 0 16 26 0 15 0 
14 12 0 1 31 0 0 0 4 0 0 30 31 28 3 15 17 20 
0 31 31 30 12 16 0 0 11 12 15 0 1 4 6 3 16 13 
0 5 19 12 14 14 4 0 12 0 17 0 0 0 19 18 13 14 
8 11 10 31 3 4 0 0 19 6 20 0 3 27 18 5 31 31 
17 9 0 31 31 17 14 4 10 20 0 28 15 0 11 8 31 17 
12 10 26 10 15 3 26 12 13 31 6 12 19 0 3 0 7 1 
15 23 2 25 0 0 4 31 0 1 31 3 14 11 3 0 0 20 
17 12 12 15 3 17 0 0 31 10 29 17 13 12 0 14 3 31 
0 31 23 16 4 20 31 4 0 9 8 14 12 14 19 4 4 2 
0 0 15 13 15 31 30 8 30 14 17 9 19 16 13 31 11 12 
18 15 0 17 16 26 11 31 11 1 31 8 2 2 13 0 15 13 
12 29 20 3 29 19 0 17 12 6 24 19 31 11 15 5 15 2 
15 0 15 0 31 0 12 0 31 14 29 3 12 30 16 15 15 0 
0 19 15 8 14 20 5 31 5 12 19 28 17 10 11 3 0 3 
4 17 30 13 9 17 12 4 16 10 18 2 21 11 24 0 18 0 
12 11 0 13 12 26 31 12 13 2 3 19 29 0 6 4 0 6 
4 0 17 11 16 12 13 15 13 0 31 9 2 24 11 13 17 2 
0 4 12 24 22 28 14 23 27 15 0 0 29 8 31 2 31 31 
15 5 20 13 12 31 18 31 31 16 0 5 5 19 0 2 12 1 
20 30 3 0 31 0 31 11 9 0 23 0 3 16 16 5 11 3 
28 18 31 9 0 0 31 31 12 9 0 11 8 12 31 19 14 7 
12 5 12 15 12 15 4 8 15 15 12 3 31 3 0 12 21 31 
19 17 13 22 16 23 25 13 13 0 14 4 12 1 31 13 3 7 
0 19 25 4 20 0 1 14 14 2 2 11 19 17 17 5 20 7 
17 31 21 8 14 0 9 19 14 11 12 7 4 4 3 14 11 28 
15 31 3 17 28 3 26 9 15 26 9 11 27 16 31 18 26 11 
24 0 12 20 13 3 27 12 26 4 14 31 16 12 31 1 29 21 
27 5 11 1 3 25 27 15 27 27 16 12 26 16 31 15 0 0 
23 8 31 8 12 0 12 28 11 3 14 16 24 11 10 17 12 4 
10 8 3 15 8 3 12 11 28 20 31 0 12 9 15 31 16 19 
8 31 28 30 9 12 1 0 23 27 11 16 13 4 26 14 18 27 
28 4 23 0 31 5 31 13 2 11 20 12 16 11 30 26 28 8 
22 14 31 5 17 11 31 19 31 9 11 12 30 31 3 19 9 20 
3 4 2 21 12 19 12 12 17 5 17 29 3 4 24 0 23 22 
10 0 12 15 12 11 28 2 11 17 11 14 0 9 3 25 13 1 
4 14 20 0 13 16 8 0 5 31 16 9 12 31 25 14 28 10 
5 0 31 20 14 18 31 31 31 5 11 5 4 20 11 30 3 15 
25 15 4 18 16 17 31 31 18 10 0 6 31 5 23 20 19 4 
9 11 12 0 12 19 30 15 15 3 0 11 13 12 16 4 15 19 
31 31 31 5 14 5 25 16 13 1 20 4 6 3 21 28 31 15 
31 21 11 15 16 10 30 12 2 31 17 10 5 23 22 0 15 14 
4 0 12 12 1 0 11 31 3 7 16 0 31 14 4 16 23 25 
10 6 13 13 29 12 19 29 16 10 18 15 0 0 12 8 31 17 
1 19 1 15 31 16 31 8 22 0 18 6 15 26 25 31 11 16 
11 6 20 0 15 25 18 25 6 17 0 1 22 31 13 15 13 31 
19 17 29 4 9 10 11 9 5 9 4 21 18 10 19 2 8 12 
17 6 17 13 11 31 20 10 19 16 31 26 15 12 31 0 11 12 
31 4 0 0 0 31 0 12 20 2 22 21 17 13 16 3 15 22 
17 15 6 11 11 4 13 3 11 16 14 20 26 31 6 15 15 5 
31 13 27 14 13 8 18 4 31 2 16 18 6 20 16 8 27 14 
14 12 18 28 17 3 31 16 14 3 18 16 11 16 16 16 14 3 
11 15 24 31 21 17 27 11 5 0 20 12 31 18 11 12 18 13 
21 13 22 19 3 31 6 11 14 17 0 2 31 19 11 31 31 0 
11 31 31 12 10 13 11 20 3 21 14 31 16 17 20 7 14 20 
29 4 8 4 16 16 31 11 28 12 12 29 17 13 19 11 0 25 
20 8 19 10 11 9 19 6 3 0 4 11 31 30 18 5 12 15 
22 19 16 1 13 12 19 4 3 15 12 13 20 11 31 10 31 10 
30 12 20 13 5 3 4 14 11 9 6 21 30 10 13 31 6 16 
25 7 11 16 23 0 28 24 31 15 31 16 27 7 31 8 28 17 
11 16 17 21 20 5 27 4 17 15 22 9 16 30 31 15 12 16 
14 25 16 15 1 31 19 17 11 13 11 7 18 13 13 5 10 31 
19 11 7 3 19 3 31 0 19 15 19 12 9 31 16 31 3 18 
3 11 3 20 5 19 13 24 15 31 1 20 0 4 16 18 16 31 
16 4 4 14 0 18 11 27 24 22 0 12 12 21 25 26 7 25 
16 19 19 4 16 10 16 21 0 5 20 16 31 21 14 0 9 4 
11 0 31 3 14 10 12 22 22 24 31 17 3 14 28 15 11 31 
18 9 29 23 5 4 25 4 15 12 7 4 16 16 31 12 10 11 
3 27 17 14 28 9 26 3 12 15 19 15 12 12 31 10 8 31 
13 14 17 15 18 31 21 27 31 3 11 27 14 31 20 13 10 5 
14 12 17 5 4 2 4 2 12 7 14 12 5 22 3 11 31 14 
13 27 12 12 3 16 28 5 12 15 12 16 12 1 11 18 25 20 
18 13 11 11 28 20 16 15 9 11 18 12 28 4 20 5 20 11 
16 11 15 21 14 11 20 31 19 5 20 12 17 25 10 12 5 24 
31 17 24 12 16 16 31 16 11 22 17 20 7 17 4 5 14 14 
11 31 12 19 16 11 29 12 17 21 18 21 22 28 20 0 31 11 
31 13 13 28 31 9 31 31 17 25 22 18 16 13 27 24 11 15 
10 4 16 17 16 21 3 20 17 19 11 7 31 4 14 4 12 31 
31 14 10 4 3 31 16 28 31 8 15 7 4 10 5 21 31 24 
31 12 17 2 31 15 19 21 19 7 27 11 31 25 27 16 11 12 
9 13 13 10 12 12 20 30 16 8 20 3 15 19 31 12 31 16 
12 17 31 4 14 31 12 17 30 10 11 12 27 14 19 14 16 12 
30 20 31 12 24 10 16 29 19 15 18 31 29 0 14 14 0 3 
31 3 9 16 4 7 21 31 18 20 25 9 13 8 27 16 15 22 
26 11 17 12 11 12 21 11 31 31 31 29 16 4 20 4 31 19 
30 10 31 11 20 20 26 7 28 31 31 3 15 10 16 4 6 8 
19 17 15 11 6 14 28 31 20 14 15 31 19 11 16 13 2 18 
27 4 20 23 19 15 11 28 31 18 19 12 31 14 18 16 20 7 
14 11 19 5 31 5 11 11 31 3 24 10 14 20 5 28 21 11 
18 17 12 11 4 4 13 15 19 11 17 20 28 15 12 13 31 15 
18 11 19 16 5 19 9 11 20 25 16 2 28 3 20 12 14 29 
14 31 14 12 28 26 20 11 14 16 18 17 24 11 27 7 13 23 
3 15 0 31 15 15 20 18 10 31 13 16 26 12 28 6 31 27 
12 10 13 10 16 1 23 9 9 22 11 12 11 30 21 17 31 15 
22 19 12 3 19 26 31 13 5 26 16 12 16 28 12 6 23 19 
31 12 17 18 11 12 19 5 20 18 3 0 26 16 12 25 26 4 
31 10 15 12 15 31 31 27 9 8 23 7 4 13 31 24 30 17 
12 0 17 17 18 16 31 7 30 31 17 20 19 14 12 10 26 4 
0 11 13 18 10 17 31 14 13 16 23 5 4 27 28 31 23 22 
17 21 29 24 17 16 11 15 28 15 12 18 13 15 31 15 28 12 
17 18 5 16 6 5 28 7 20 9 18 19 31 16 14 16 31 14 
22 13 10 4 13 12 31 27 12 5 31 24 20 10 31 7 28 3 
9 13 11 4 17 7 31 28 13 11 14 6 13 11 31 13 6 12 
14 19 23 12 26 21 31 7 25 18 31 16 24 31 31 4 0 15 
31 29 20 14 15 12 20 15 29 22 30 3 29 27 16 26 15 20 
19 16 29 31 16 13 26 12 16 31 29 11 18 13 14 14 11 31 
31 11 31 8 5 18 22 16 28 20 28 7 18 31 28 31 23 14 
21 4 14 16 31 31 3 1 31 10 18 16 31 28 13 8 12 17 
15 0 18 30 11 3 19 11 4 18 20 21 20 5 27 5 7 12 
16 11 11 16 17 15 12 13 11 31 16 16 14 10 16 14 31 14 
16 20 24 15 30 18 31 12 28 20 20 11 3 17 4 12 3 12 
30 15 28 11 24 11 19 7 20 28 13 12 23 18 12 25 14 10 
31 26 29 14 13 28 9 12 16 26 19 26 15 4 14 15 31 13 
16 14 11 17 20 31 17 22 31 14 14 16 9 31 10 15 14 15 
12 13 25 19 21 13 4 18 6 26 6 31 12 11 28 12 14 13 
17 19 15 23 16 8 13 19 29 11 15 16 19 16 19 31 18 16 
14 15 31 12 11 18 20 19 28 20 11 17 17 28 19 28 28 13 
31 5 30 15 8 26 15 7 31 8 16 4 20 11 27 15 31 10 
31 17 22 18 15 21 11 28 24 28 14 14 3 31 15 10 15 6 
12 10 31 13 12 18 26 11 29 4 12 26 13 15 21 16 31 16 
24 20 15 2 16 16 19 24 14 31 26 18 19 22 13 17 23 14 
16 19 17 12 19 3 19 19 5 21 19 13 11 6 17 12 31 9 
3 12 31 31 12 5 29 19 16 12 19 2 28 28 6 14 20 5 
12 5 28 10 31 12 16 23 12 13 13 19 13 4 12 25 29 10 
14 21 27 5 10 20 17 20 4 15 29 16 15 11 10 27 31 11 
31 11 13 14 11 10 20 18 28 30 12 31 21 10 15 17 18 27 
28 13 26 19 16 18 28 19 28 13 14 13 19 20 21 12 16 18 
31 16 19 20 14 16 31 14 22 4 26 14 31 31 16 12 15 3 
23 7 10 11 29 18 31 27 31 25 3 11 9 14 12 11 15 12 
11 4 31 11 31 4 22 22 16 24 4 5 31 15 18 31 16 28 
15 12 12 3 13 15 3 24 31 12 21 11 31 12 30 7 20 19 
19 28 24 20 31 19 31 4 10 14 15 11 4 31 15 5 31 11 
26 31 15 10 15 27 13 8 15 18 15 13 14 31 21 16 14 13 
31 15 31 31 4 13 15 16 13 17 13 31 26 17 31 14 21 11 
12 16 12 4 15 13 10 31 30 17 31 11 15 13 17 8 31 23 
28 11 23 15 13 25 12 15 29 31 15 5 15 20 31 9 22 20 
13 17 25 22 13 13 28 31 24 19 30 31 23 19 15 6 20 22 
18 19 7 18 16 8 19 28 12 24 28 31 29 30 31 10 14 15 
22 27 20 15 16 4 15 23 31 31 11 31 20 12 16 15 30 12 
26 13 7 10 3 20 6 31 13 16 12 20 8 18 18 31 29 1 
