0 0 17 25 0 0 31 8 0 17 5 0 17 2 3 6 3 16 
0 0 11 31 0 0 11 16 0 3 1 15 3 6 10 3 14 0 
0 17 4 1 22 1 31 21 0 0 2 3 0 0 0 4 5 0 
0 0 1 4 0 0 19 0 0 5 3 30 0 0 8 6 4 24 
0 0 11 23 26 17 0 0 31 0 0 10 0 0 0 5 0 13 
0 26 18 1 0 16 15 31 11 3 11 3 9 0 0 3 14 0 
18 0 15 18 22 0 12 0 16 16 2 23 0 0 31 31 5 31 
16 28 9 12 15 19 28 16 11 12 20 22 4 0 11 25 22 31 
30 31 2 12 0 23 0 10 5 14 0 3 3 6 31 0 11 7 
8 18 4 0 12 0 0 3 3 4 4 12 31 18 1 19 31 0 
11 11 5 3 4 0 8 5 1 0 0 0 8 11 0 16 7 12 
0 3 8 0 4 20 31 25 0 11 3 31 10 19 12 0 1 13 
0 8 4 18 19 0 4 31 0 13 4 0 13 16 31 1 6 12 
11 8 3 3 26 19 9 8 15 3 19 7 4 0 11 4 5 13 
2 0 5 6 17 0 3 4 11 12 9 4 13 10 9 11 28 4 
31 0 27 14 19 0 5 13 14 13 0 0 11 0 0 20 10 15 
12 19 3 9 4 19 16 18 3 7 17 2 23 5 23 16 13 4 
11 0 20 0 0 7 24 21 25 0 0 31 15 0 31 9 31 9 
26 10 20 27 20 5 8 26 15 0 26 4 28 31 22 27 28 4 
15 17 18 11 16 0 28 7 4 15 9 15 18 23 5 31 19 10 
18 19 18 31 3 12 0 0 17 0 12 0 5 15 7 11 11 4 
11 11 31 31 11 23 17 31 19 25 15 2 8 13 8 16 31 16 
15 4 31 31 5 11 19 0 28 2 18 18 10 0 28 31 4 0 
15 3 16 7 20 0 12 7 6 27 0 0 28 0 12 0 15 4 
13 10 0 31 10 31 0 11 15 6 12 21 9 24 11 2 10 0 
13 28 12 11 0 11 18 10 5 10 18 10 18 19 6 27 26 15 
6 0 0 19 10 20 28 15 13 4 7 7 0 1 0 3 18 16 
13 4 8 19 4 0 0 2 0 31 11 0 10 28 11 12 8 2 
31 14 11 10 3 16 20 12 31 5 31 19 12 8 15 0 3 28 
21 0 12 4 10 9 16 12 28 20 31 14 26 30 4 12 31 0 
31 3 18 15 22 21 16 11 11 20 31 3 31 14 20 29 4 11 
23 3 18 8 11 31 2 2 4 20 8 11 8 3 22 31 11 31 
4 17 2 0 0 15 0 11 19 27 0 27 31 8 6 2 16 31 
8 12 12 17 31 20 13 19 10 10 10 14 11 3 5 9 29 4 
30 11 3 1 4 14 3 11 6 0 29 9 13 14 16 8 31 28 
0 12 18 3 1 14 23 31 31 13 11 25 20 14 0 6 11 20 
14 0 31 6 9 12 0 26 11 12 27 4 15 11 11 3 4 11 
20 30 18 11 29 4 5 22 31 3 31 8 20 20 0 8 12 17 
8 0 12 7 0 31 4 17 0 0 15 0 0 5 5 29 15 10 
4 30 31 31 31 21 12 0 1 11 13 0 31 15 30 11 20 17 
11 12 17 9 5 16 23 9 10 13 31 12 11 21 0 1 16 0 
12 0 28 18 0 11 15 20 3 16 16 6 0 14 31 31 19 16 
0 17 1 4 10 31 30 19 13 31 0 25 6 17 31 11 2 9 
24 15 7 5 10 12 17 3 16 1 11 31 13 3 0 2 31 16 
0 25 18 28 13 14 31 11 30 3 11 15 2 4 8 2 16 15 
0 11 0 30 13 3 10 0 15 10 10 6 11 9 2 8 16 13 
11 3 11 23 11 14 18 15 5 31 16 5 0 0 14 25 4 0 
3 7 0 11 6 8 6 0 6 21 18 11 31 11 15 31 4 31 
0 22 2 0 4 29 6 18 5 15 8 12 12 12 12 23 26 17 
9 11 26 31 0 28 30 2 0 19 13 5 7 16 15 0 31 21 
14 13 2 12 11 13 30 5 14 8 1 17 17 12 11 7 6 5 
28 12 20 25 9 28 0 10 29 4 10 26 17 6 9 15 16 5 
11 29 9 27 15 24 5 14 13 31 5 13 15 0 12 4 12 14 
0 0 12 31 14 11 5 4 11 27 12 27 0 3 14 10 17 13 
26 24 4 19 1 2 31 0 19 18 19 3 19 31 12 12 18 1 
7 12 15 0 0 0 17 9 12 5 12 14 3 14 4 31 29 3 
0 15 20 24 16 19 26 12 0 13 4 31 31 10 11 12 21 20 
3 13 0 2 9 15 12 1 14 6 16 4 15 31 19 13 8 8 
2 14 19 9 24 11 28 2 11 13 10 24 12 4 18 12 26 12 
10 19 7 10 17 31 6 0 20 11 26 28 0 31 19 1 15 9 
31 8 31 25 6 12 0 13 0 3 7 7 5 12 20 23 28 11 
16 24 12 16 28 24 3 8 30 10 15 9 11 17 21 12 12 8 
31 12 25 31 28 4 0 0 12 31 20 27 22 22 16 9 11 5 
30 0 6 3 3 16 15 17 9 2 31 0 10 11 12 4 4 9 
19 22 16 4 0 10 15 4 24 31 26 20 24 31 31 19 31 7 
12 11 9 24 16 31 15 31 20 23 15 20 30 21 19 10 14 17 
19 31 30 26 1 0 31 13 6 10 15 11 10 31 27 16 16 18 
28 0 30 10 11 10 12 15 3 17 2 4 10 19 5 11 18 28 
18 12 6 10 1 19 27 22 27 17 9 6 29 13 14 31 17 14 
14 1 14 15 31 16 31 31 11 15 5 12 17 19 0 14 7 18 
14 10 18 7 14 12 18 23 14 12 12 13 14 0 4 28 14 22 
12 18 15 14 2 4 14 4 12 25 16 14 15 10 21 8 0 13 
31 11 3 31 31 12 27 14 12 11 12 17 31 21 13 4 19 31 
31 15 7 31 6 16 12 12 14 26 22 6 12 0 0 3 2 0 
16 2 14 7 25 0 11 28 11 17 10 22 10 26 20 10 24 3 
19 10 6 12 4 31 3 13 4 28 12 12 13 0 17 12 15 18 
16 26 26 15 20 16 8 31 9 15 23 31 17 1 16 6 31 10 
31 30 16 4 15 11 31 14 8 9 11 20 0 16 11 22 18 16 
0 15 0 17 12 11 14 12 19 14 20 4 28 21 31 0 15 12 
19 15 11 14 22 0 11 27 3 18 29 14 18 11 26 20 24 27 
3 31 11 15 31 9 3 5 20 11 11 11 10 15 14 12 20 18 
6 13 13 0 3 15 3 17 11 11 3 11 13 2 9 10 18 0 
2 17 12 14 15 31 31 14 9 9 19 14 31 18 31 14 8 11 
24 3 28 15 19 12 0 1 26 14 12 1 19 10 29 11 8 1 
13 19 13 14 4 0 15 15 15 11 30 11 31 23 20 6 11 11 
15 29 10 20 18 16 6 21 9 21 25 18 17 3 23 12 7 15 
3 13 12 17 12 11 8 31 5 14 13 14 19 31 31 10 20 11 
15 5 11 0 14 15 11 14 11 14 14 31 6 16 11 30 29 9 
19 12 19 5 15 31 16 0 0 3 15 16 0 28 7 23 12 10 
12 15 31 28 8 28 3 0 26 21 22 11 24 19 19 15 26 13 
4 16 31 15 26 3 11 11 11 4 25 6 14 17 14 11 15 14 
26 13 31 31 30 17 18 29 5 16 31 31 12 15 19 3 11 2 
20 11 31 24 4 30 15 18 16 15 10 27 5 18 15 15 14 0 
3 19 15 31 19 27 7 3 11 20 17 29 19 28 15 14 31 10 
15 19 7 12 11 9 20 0 17 10 12 6 18 26 16 11 31 11 
10 4 19 6 7 19 23 31 13 17 11 29 31 11 19 16 31 13 
0 4 31 13 5 19 20 11 22 11 11 28 16 29 13 15 0 13 
24 3 31 4 31 24 31 13 2 12 31 31 10 15 21 17 25 12 
4 31 15 12 16 11 18 26 17 26 8 2 4 13 0 19 12 18 
29 18 24 3 26 15 18 15 10 19 10 24 31 12 31 30 12 15 
12 16 19 31 27 8 12 20 4 15 17 19 10 16 17 19 31 12 
11 0 16 13 11 30 8 12 31 4 24 4 18 13 19 16 12 10 
20 18 23 17 24 13 0 10 25 11 6 4 14 11 20 0 31 4 
13 13 15 31 11 12 14 15 11 15 10 20 18 28 16 20 31 5 
9 3 31 11 28 16 11 17 7 24 8 11 31 31 12 23 27 17 
28 17 15 7 28 12 11 28 11 11 31 25 10 12 28 10 15 4 
12 31 9 10 23 4 7 31 11 8 5 22 3 0 16 31 15 1 
4 23 1 15 31 25 29 3 11 19 31 5 28 28 28 10 12 13 
17 19 11 28 20 20 31 4 17 6 27 0 31 4 11 7 31 12 
15 16 12 28 14 16 13 19 28 11 18 14 16 19 11 26 11 3 
31 14 15 2 31 26 28 3 19 0 15 31 31 10 18 10 14 28 
26 2 21 29 31 13 14 13 18 20 18 14 9 14 19 11 15 14 
6 31 10 24 18 28 3 0 28 11 12 15 22 24 13 3 11 11 
1 20 0 26 11 31 10 8 16 16 13 14 11 11 18 21 16 11 
18 19 6 19 1 11 18 18 1 6 3 12 14 4 1 20 17 13 
31 0 15 16 7 3 0 31 25 14 16 10 19 11 26 11 13 28 
8 21 15 15 26 17 26 4 17 6 12 17 14 17 12 15 16 15 
20 15 21 13 10 15 17 16 5 11 15 19 2 16 13 12 17 16 
12 24 15 16 14 3 24 31 0 30 5 16 14 22 18 20 17 16 
2 15 11 23 25 19 19 17 15 10 12 20 5 1 19 26 26 15 
12 9 9 20 0 11 15 14 26 3 15 16 26 31 4 18 31 10 
18 4 19 16 11 26 15 13 29 18 3 4 28 30 13 28 30 11 
5 21 14 25 15 4 15 31 19 31 4 31 15 19 19 4 24 12 
28 25 11 10 11 19 5 29 16 13 31 31 4 10 31 19 8 12 
13 29 12 20 19 19 10 20 7 15 12 4 14 11 19 5 11 18 
24 24 5 0 3 18 13 11 12 12 12 14 15 27 20 13 31 23 
16 27 19 15 12 12 18 24 5 12 18 31 26 29 17 11 30 0 
24 7 15 15 12 17 11 8 15 27 31 31 31 6 28 0 13 2 
11 23 12 16 22 23 15 16 12 13 20 12 23 3 14 14 14 13 
24 16 16 5 13 10 15 25 16 5 11 17 19 20 31 20 15 22 
16 17 1 9 24 29 13 31 14 16 11 4 31 18 31 18 11 6 
15 0 31 12 10 26 14 11 4 11 15 12 15 19 24 12 8 31 
24 26 23 11 20 8 16 26 9 11 31 13 21 16 16 7 11 4 
31 13 0 13 15 1 13 15 12 31 31 25 13 10 5 26 31 31 
31 17 24 0 14 7 3 14 26 28 12 11 12 10 20 4 17 10 
16 18 12 12 27 26 7 13 18 9 16 18 16 15 12 8 6 10 
19 4 7 8 8 17 30 13 4 18 24 31 25 20 14 14 17 26 
12 20 7 13 0 31 11 20 22 11 14 5 11 11 31 18 19 12 
28 22 31 15 0 21 11 28 24 18 16 8 19 11 26 31 14 7 
15 5 12 31 31 11 13 26 31 28 12 12 31 21 14 24 14 21 
14 15 10 24 3 26 9 22 4 31 30 16 31 12 12 12 20 13 
31 4 12 26 12 31 19 17 27 12 6 13 12 16 14 20 12 18 
4 15 10 4 31 26 19 31 24 18 12 31 27 16 19 24 31 20 
20 9 26 19 9 2 9 13 31 16 30 1 2 20 18 11 16 12 
19 31 13 31 17 3 11 12 12 14 26 20 24 31 6 10 19 22 
0 11 28 12 26 27 12 4 18 31 17 26 22 27 14 14 26 5 
16 20 16 4 18 13 26 31 26 18 31 28 31 22 31 15 15 3 
15 12 15 29 16 18 11 26 15 27 3 12 13 16 0 6 6 15 
9 31 15 0 18 11 26 13 11 28 0 6 28 31 15 11 28 8 
31 16 19 18 13 31 15 11 12 24 4 14 19 19 9 25 20 23 
15 16 14 14 11 3 9 15 26 31 29 28 31 0 18 14 22 4 
20 28 24 20 31 18 15 5 28 31 31 31 13 12 31 21 12 5 
10 10 25 31 11 11 30 4 31 10 28 9 16 31 24 27 13 19 
8 31 29 15 0 5 14 8 19 31 12 20 18 16 18 12 19 18 
13 25 21 31 5 31 26 31 11 21 6 17 21 13 31 27 28 31 
14 21 30 24 11 14 24 19 12 10 31 28 16 20 28 21 19 18 
11 9 11 31 4 24 31 31 15 31 31 14 20 28 23 19 30 16 
12 28 31 16 16 20 17 29 5 19 19 15 16 3 20 18 9 21 
30 12 18 21 28 8 3 18 5 15 11 28 11 26 11 24 31 14 
15 29 21 19 12 28 31 21 19 20 16 15 17 31 31 21 25 4 
