0 7 4 3 0 31 13 8 0 11 11 4 0 10 28 11 4 3 
28 20 3 12 4 4 12 5 4 13 4 1 0 31 0 0 11 5 
13 26 9 31 10 12 11 31 0 4 31 15 24 8 31 20 6 3 
31 28 26 4 18 0 12 9 3 0 11 12 12 4 0 1 31 16 
20 4 15 4 16 21 17 19 15 13 31 25 3 20 18 31 5 15 
0 0 12 12 19 12 13 20 12 11 11 12 0 3 16 1 16 3 
2 17 0 31 12 1 20 10 10 31 18 19 11 5 3 30 0 0 
0 4 19 5 21 8 0 31 28 31 15 11 0 0 0 10 31 31 
4 31 15 3 22 18 0 12 11 0 0 28 6 5 6 6 3 12 
1 31 15 0 4 0 0 5 15 8 0 0 31 0 2 20 0 0 
17 20 4 30 11 0 9 1 31 14 5 2 21 1 3 11 13 0 
20 7 0 1 24 9 31 11 2 16 27 28 0 0 0 19 31 8 
0 0 31 31 10 3 31 6 0 29 28 21 19 13 9 0 12 30 
31 4 27 26 0 14 9 11 10 15 13 0 5 28 4 12 31 31 
11 13 15 30 11 14 20 23 0 16 25 0 30 3 2 4 0 14 
0 3 17 23 19 5 21 27 27 0 4 21 23 0 27 4 19 0 
13 4 2 3 0 11 31 13 1 31 8 4 0 12 7 8 31 1 
26 31 11 31 11 21 14 0 7 31 9 31 31 0 31 20 10 11 
14 4 30 26 12 11 12 3 16 11 11 0 0 6 4 0 19 19 
0 3 11 0 9 31 3 16 11 3 3 0 4 31 14 24 12 0 
0 31 31 14 5 0 0 11 0 4 12 15 4 19 0 28 16 19 
19 31 7 31 26 29 0 19 13 17 19 14 13 29 9 17 11 1 
3 2 14 2 0 30 10 4 31 0 3 25 12 4 0 4 0 5 
1 31 1 15 17 29 30 22 31 11 3 8 0 31 20 19 0 0 
6 8 14 27 11 19 31 5 31 21 19 0 8 31 6 3 22 0 
8 24 12 31 0 31 8 0 14 12 15 9 4 20 17 26 7 12 
17 24 16 31 2 20 11 19 0 17 30 20 3 10 0 9 19 17 
15 31 12 26 26 0 12 0 30 3 11 6 12 31 31 28 11 31 
18 1 26 30 9 7 25 8 2 4 9 0 26 4 3 0 26 16 
12 23 7 22 4 15 12 13 0 1 0 21 0 10 2 4 19 3 
21 27 11 19 5 11 13 27 2 15 12 20 31 11 26 30 20 30 
20 17 11 0 0 20 21 10 2 4 9 31 14 31 10 3 21 31 
0 0 31 31 19 20 19 5 4 13 26 3 9 14 27 16 5 0 
0 18 14 31 15 28 12 10 21 6 0 0 30 11 31 5 27 17 
3 16 0 31 0 0 31 8 0 18 3 19 18 11 0 10 10 19 
4 9 8 11 17 31 31 9 13 12 4 20 0 31 7 18 0 24 
1 10 0 8 16 17 0 11 4 26 6 12 5 13 13 1 8 17 
12 31 5 13 16 20 27 2 31 31 7 29 4 1 26 31 5 20 
14 20 22 29 31 18 20 12 13 10 5 20 14 28 11 31 7 28 
10 16 10 16 10 26 4 10 12 20 31 0 19 25 10 19 0 22 
2 31 12 8 31 15 4 12 12 16 4 3 18 11 10 0 4 15 
21 31 23 2 29 14 31 0 4 11 31 19 5 21 2 6 10 12 
28 31 8 17 31 3 31 0 1 13 2 13 19 31 3 31 12 31 
5 18 21 13 3 22 20 13 3 31 21 18 31 31 27 29 3 8 
31 17 13 1 10 31 7 18 22 14 3 6 31 7 10 31 31 4 
12 2 0 19 20 0 4 20 0 16 16 0 11 26 13 13 11 0 
31 0 0 12 4 14 3 15 15 23 19 28 20 1 27 31 29 16 
16 11 31 14 30 12 20 28 31 13 0 4 17 25 2 15 20 8 
13 31 12 10 11 19 19 12 20 28 12 30 20 4 6 12 11 4 
31 30 21 6 5 4 26 6 11 10 15 12 14 12 11 31 19 19 
15 19 20 20 12 31 17 31 7 18 9 16 28 0 31 17 22 30 
10 14 19 12 4 31 5 31 19 10 19 17 15 7 10 12 5 1 
3 27 12 5 12 5 8 0 13 31 10 4 5 11 18 2 15 31 
20 10 18 2 26 24 21 4 26 31 19 31 13 2 3 12 28 19 
19 19 20 27 0 31 12 17 12 2 15 0 9 22 12 0 31 4 
15 31 10 27 11 7 14 1 28 26 2 2 12 31 28 5 19 5 
20 31 15 22 15 16 11 0 6 27 9 4 15 17 9 12 20 31 
4 13 3 6 15 12 9 27 11 24 31 30 19 4 17 10 10 16 
24 31 0 21 0 16 20 8 25 13 11 11 30 4 4 2 19 5 
17 11 18 17 0 19 31 12 20 14 19 16 3 12 15 12 12 16 
31 20 17 31 10 2 13 11 11 12 11 4 31 10 8 12 2 13 
11 11 11 28 7 11 12 5 16 31 10 31 22 27 19 22 16 26 
16 20 16 20 11 31 31 18 8 11 18 12 11 15 31 31 16 18 
3 31 11 5 14 15 31 31 0 31 18 13 28 3 10 1 3 7 
3 12 11 31 31 19 19 31 3 14 1 26 15 31 0 12 31 30 
14 11 13 12 31 31 27 8 5 31 3 4 11 28 14 16 16 11 
3 6 11 31 4 19 1 31 13 31 22 12 16 2 10 31 30 15 
13 31 10 30 13 19 27 14 21 15 6 24 3 10 16 22 0 14 
16 30 4 17 25 15 3 31 12 15 20 9 10 0 31 15 31 16 
14 4 15 4 7 28 3 14 31 10 20 7 15 7 12 7 0 12 
11 31 6 11 13 20 12 20 3 21 12 17 15 19 10 30 9 22 
16 5 20 26 4 2 15 8 31 12 7 13 16 31 25 31 8 30 
5 11 0 20 11 11 11 28 3 31 27 18 31 12 12 17 16 31 
10 4 14 31 14 28 17 31 29 14 15 23 4 31 31 31 11 17 
11 16 12 13 18 24 31 13 4 12 1 12 17 10 31 19 10 31 
12 31 11 19 12 15 26 11 15 11 10 5 12 28 18 11 14 1 
31 15 13 25 5 4 18 11 5 28 19 14 25 28 3 15 20 4 
9 14 2 31 0 17 17 31 11 0 31 12 11 17 18 31 23 22 
12 25 16 15 9 20 9 31 16 3 14 20 17 14 4 16 23 20 
7 5 3 15 19 14 17 3 21 29 25 15 23 14 20 19 19 31 
31 22 8 0 11 24 9 13 11 16 11 13 14 4 17 10 5 19 
11 14 13 4 13 23 1 26 13 20 10 16 31 24 1 31 17 22 
7 25 14 26 20 13 0 9 17 28 28 24 23 19 15 28 19 18 
11 27 5 7 31 15 26 11 22 12 6 26 7 5 28 28 24 15 
14 25 31 20 10 20 18 31 15 31 15 16 15 3 10 31 3 9 
20 31 12 28 26 31 17 31 15 21 11 20 14 31 31 31 12 31 
28 13 13 29 14 12 18 13 23 27 12 8 30 31 19 31 14 27 
12 31 11 12 28 25 10 20 19 26 11 16 21 19 2 12 4 23 
31 19 3 18 11 0 31 11 11 3 28 26 24 9 24 21 13 17 
4 17 10 12 8 11 11 19 14 20 22 28 11 11 31 18 16 25 
15 0 10 4 13 13 12 0 7 16 8 10 11 13 0 11 17 17 
5 19 1 19 5 31 31 12 18 13 31 4 20 25 18 15 25 31 
26 31 15 27 4 13 4 21 28 5 19 7 12 15 12 31 28 3 
17 5 9 21 13 11 11 11 26 4 10 27 8 17 12 12 22 19 
20 18 15 30 30 30 7 0 13 7 12 27 28 17 4 14 26 1 
24 2 16 9 14 13 16 1 11 6 13 7 16 18 4 13 13 10 
14 16 16 13 12 18 13 0 3 16 8 22 12 31 20 10 28 29 
19 8 31 15 12 1 15 19 0 0 26 13 11 15 13 3 13 10 
3 31 20 7 15 12 7 31 18 31 24 3 4 3 3 19 18 28 
27 18 5 31 12 12 22 15 11 7 10 18 3 5 19 20 14 0 
11 15 21 31 17 22 11 23 11 26 15 16 11 12 13 15 31 31 
14 13 12 0 12 31 16 16 26 28 18 13 19 9 16 31 26 20 
14 31 27 31 26 11 1 15 31 28 31 10 31 0 9 12 31 11 
11 31 15 22 27 11 0 13 15 15 31 4 20 16 22 20 31 25 
16 19 17 25 11 13 10 31 12 23 31 11 28 14 11 31 16 13 
17 21 19 19 31 31 16 28 11 12 6 18 13 26 4 28 19 31 
1 4 9 30 15 11 12 21 9 23 28 15 18 8 31 14 3 12 
24 11 20 12 20 28 20 8 20 15 10 12 19 15 15 18 18 17 
31 31 9 20 28 23 15 14 6 16 11 14 14 19 14 11 4 13 
4 16 16 31 3 0 8 30 1 15 18 14 15 4 16 14 31 6 
15 13 25 11 16 20 14 11 11 15 29 18 11 23 31 26 15 12 
31 14 15 5 21 20 15 14 12 10 14 26 12 10 31 15 13 23 
11 26 15 16 24 18 17 19 7 16 11 13 16 29 19 16 31 11 
22 19 31 13 0 12 12 27 12 11 6 20 16 30 15 11 4 9 
24 13 20 3 20 19 19 19 8 30 19 14 4 12 19 31 11 3 
14 14 11 17 26 11 12 20 26 16 18 17 8 22 17 16 12 16 
19 31 16 31 4 17 18 12 15 18 11 12 31 11 15 18 16 20 
31 12 23 18 26 18 12 30 15 25 7 22 6 14 4 7 16 31 
11 19 7 29 26 31 11 23 19 20 15 28 3 31 5 3 7 31 
14 25 7 12 11 13 17 26 4 14 26 17 21 19 12 31 13 3 
12 31 29 17 3 13 10 5 19 10 14 21 26 0 11 18 18 1 
9 31 11 18 31 2 12 14 16 30 4 25 14 13 3 27 17 17 
30 15 30 12 9 12 11 16 21 27 15 13 5 5 6 19 5 16 
14 15 14 18 12 26 23 15 16 15 16 18 25 31 15 16 31 12 
10 31 22 15 5 12 3 21 3 28 1 3 15 12 12 26 14 5 
18 2 11 25 15 9 16 17 12 9 17 12 12 19 24 3 16 12 
19 10 15 16 11 14 12 11 6 8 21 17 25 25 2 15 26 31 
31 11 31 28 15 31 28 5 19 15 31 23 15 14 29 8 12 16 
9 3 19 31 15 14 13 31 7 31 15 15 27 30 16 14 31 3 
27 31 11 11 20 31 28 3 3 15 16 11 8 15 28 11 31 31 
8 19 8 15 14 2 3 30 3 19 16 12 21 4 18 15 16 7 
17 14 31 31 0 23 16 12 12 16 8 15 16 16 12 6 20 0 
16 26 21 16 5 4 15 15 19 12 8 31 10 31 28 31 15 20 
10 30 5 31 13 11 22 18 11 11 29 11 20 17 16 31 14 25 
19 21 28 7 3 31 16 31 9 31 3 9 21 10 13 25 16 18 
4 22 28 30 2 6 16 29 8 20 14 11 15 15 11 25 12 16 
19 20 20 11 9 15 4 4 4 26 16 10 18 26 1 0 25 18 
16 24 31 19 31 4 13 12 11 28 17 12 4 0 20 19 31 15 
11 19 9 30 17 21 11 13 25 21 2 20 11 31 0 31 20 22 
21 14 4 11 11 15 15 3 8 0 19 15 19 31 11 17 5 6 
19 21 11 16 15 19 14 24 16 13 7 13 18 13 31 15 16 12 
31 13 10 11 19 31 15 22 11 13 13 31 10 20 31 11 6 23 
11 9 25 0 28 24 31 17 11 31 14 31 15 13 6 31 18 30 
19 11 30 25 7 6 20 10 31 15 31 7 0 18 1 15 16 19 
31 18 17 14 28 16 17 13 31 11 28 25 4 22 14 31 12 16 
14 27 9 31 18 22 19 9 14 21 15 12 13 19 9 9 20 11 
19 11 12 17 7 31 15 0 30 20 31 26 31 21 18 15 24 28 
6 27 15 19 17 10 21 16 21 15 0 19 13 31 15 12 21 5 
15 28 15 17 20 27 8 31 11 3 19 14 19 26 17 16 15 31 
31 19 31 19 15 16 0 29 11 13 0 31 23 17 3 18 7 14 
13 12 19 20 0 13 25 16 29 16 15 27 8 12 16 12 19 11 
31 19 7 9 8 12 31 23 11 22 25 12 18 17 12 9 17 31 
16 23 19 17 16 12 14 11 12 14 31 31 6 5 16 15 26 10 
15 31 16 15 8 8 31 4 23 30 13 22 13 28 15 18 17 19 
8 21 15 12 15 4 12 29 31 5 12 10 31 12 16 11 31 10 
31 15 15 25 4 14 19 30 19 27 14 18 12 18 19 26 17 13 
29 30 2 31 12 14 26 4 11 7 23 26 7 28 31 12 26 28 
13 31 12 20 20 24 20 16 16 14 20 29 14 10 20 15 19 4 
16 15 9 15 4 20 23 31 19 16 13 10 28 12 13 13 29 22 
14 30 25 18 14 13 11 31 27 17 26 27 3 23 11 21 31 11 
