0 14 16 1 15 10 20 2 2 10 22 0 24 13 20 0 4 6 
1 12 8 0 16 15 0 10 12 11 11 1 14 28 18 1 0 3 
15 3 12 1 12 16 12 20 1 12 4 13 20 13 20 13 15 0 
10 11 19 2 12 27 21 13 18 15 13 17 27 10 0 20 5 7 
15 15 4 1 24 17 27 0 0 1 11 19 9 0 15 0 19 1 
3 4 8 27 12 1 16 6 19 4 13 12 1 3 4 5 15 2 
1 1 0 6 3 0 12 0 1 11 20 5 15 18 4 19 8 17 
27 19 18 0 20 17 18 27 17 12 22 11 1 11 4 11 15 14 
16 31 18 4 18 1 1 0 25 5 3 19 4 4 1 12 1 4 
4 10 12 3 29 2 0 15 10 13 15 0 28 0 0 13 3 17 
0 8 19 11 8 8 16 15 4 31 19 10 28 3 0 20 21 13 
3 2 6 2 12 12 19 15 19 13 11 11 4 27 11 19 4 3 
12 1 11 3 3 5 13 0 3 12 19 20 17 13 16 0 14 16 
20 0 18 15 11 3 16 14 13 4 15 12 17 21 9 12 9 2 
8 20 19 10 11 10 13 18 3 19 5 1 25 7 9 19 12 8 
4 19 14 19 19 0 15 15 18 9 11 3 2 4 20 4 27 0 
11 4 11 3 19 8 14 15 2 20 12 16 5 18 10 12 1 21 
11 11 13 0 11 11 19 1 15 13 10 19 20 7 19 11 19 1 
10 16 9 14 8 10 3 11 11 9 0 1 3 1 27 19 4 1 
0 3 17 1 8 14 15 10 15 15 10 0 11 1 19 1 1 0 
11 12 26 2 6 4 12 24 19 24 16 11 16 21 6 4 13 8 
21 18 20 12 27 8 0 9 14 15 10 7 21 9 13 12 6 10 
11 0 8 12 14 12 1 27 19 7 11 2 19 11 16 17 12 1 
11 11 23 16 1 13 12 19 0 10 10 4 8 11 5 2 4 14 
13 12 4 9 12 13 16 0 8 12 11 13 17 2 16 18 12 12 
10 17 27 2 2 21 13 15 11 3 0 3 3 26 16 11 18 17 
10 0 15 1 19 14 4 18 22 11 14 14 15 0 20 12 22 14 
8 21 5 0 9 3 6 21 24 15 10 1 2 16 11 5 28 18 
0 9 19 2 2 4 20 1 2 16 20 1 3 5 9 15 15 19 
15 3 19 0 27 1 0 1 1 3 22 11 3 0 1 14 2 15 
2 19 17 6 12 27 13 6 12 14 3 14 10 6 3 11 27 17 
12 2 12 13 12 24 16 5 20 13 20 12 13 4 8 8 0 29 
12 7 13 0 13 5 21 14 15 11 24 5 11 12 4 1 19 19 
0 9 15 12 5 11 14 9 12 11 25 2 14 11 0 12 15 16 
21 20 8 7 27 3 16 5 8 10 27 20 28 10 15 11 11 10 
9 12 19 4 16 13 14 19 24 1 4 3 0 14 14 16 11 12 
20 8 13 0 16 15 15 19 27 12 5 0 20 1 11 0 10 16 
13 3 15 3 20 16 19 0 3 21 28 15 5 8 21 3 17 0 
27 7 17 6 21 27 16 0 6 12 29 15 16 1 19 4 15 18 
3 27 21 2 19 0 9 1 9 15 25 3 20 16 11 0 14 6 
3 9 26 11 23 4 21 16 13 19 9 1 30 16 17 0 11 15 
28 30 18 13 22 16 13 10 11 4 9 0 12 20 8 10 12 27 
19 0 15 3 30 12 31 3 15 7 1 11 5 19 1 18 18 27 
1 11 15 18 12 11 18 3 15 19 18 6 10 0 18 20 15 19 
11 4 1 6 7 1 11 18 19 0 16 13 6 21 2 19 17 6 
15 0 12 21 16 14 8 0 0 28 18 14 18 19 12 15 27 0 
27 9 18 4 16 3 11 14 10 4 4 13 19 11 7 5 7 11 
15 10 18 4 6 3 1 13 12 11 24 9 16 17 11 19 11 3 
18 0 16 18 12 25 11 2 25 7 23 18 23 16 12 12 15 13 
11 27 11 12 20 2 24 13 6 16 4 15 0 0 11 13 0 1 
3 19 19 24 12 16 10 21 20 25 14 13 18 1 31 14 17 19 
14 3 27 15 16 22 31 28 2 12 22 0 7 20 15 0 6 15 
14 0 27 16 19 6 12 19 20 20 12 21 11 18 3 5 18 11 
4 12 31 16 3 3 8 3 15 27 2 0 6 12 3 3 17 17 
4 23 2 1 1 1 16 0 6 11 16 11 11 0 1 11 31 0 
1 15 6 4 11 1 4 3 16 24 22 18 11 2 14 14 14 1 
14 12 11 28 12 27 19 10 15 13 5 1 18 16 19 8 4 4 
15 16 17 11 18 20 21 7 12 7 31 1 19 14 26 11 16 11 
18 10 0 20 13 2 14 24 3 11 11 13 0 12 26 28 4 2 
28 15 6 17 16 11 12 12 0 21 9 19 3 12 15 7 11 0 
27 1 11 7 20 14 3 17 12 11 22 9 10 17 12 12 2 14 
15 0 19 15 14 8 27 15 11 12 18 12 18 15 3 11 11 11 
6 14 12 1 11 16 15 13 17 10 11 0 0 18 14 20 3 15 
12 16 6 16 12 7 27 25 20 22 10 0 1 17 27 9 13 1 
12 0 17 15 24 12 16 17 10 12 17 15 0 14 11 15 1 27 
12 18 5 1 3 19 5 3 21 8 17 14 13 11 1 16 0 1 
1 3 6 18 3 19 1 16 4 15 6 12 12 6 11 20 16 3 
14 2 18 13 9 15 3 0 16 14 19 19 10 13 7 1 17 10 
24 3 9 17 28 11 23 14 26 16 16 13 18 8 5 15 16 8 
1 2 27 10 12 15 13 16 14 9 3 1 3 13 6 3 11 11 
6 14 16 8 4 2 10 15 16 14 3 1 16 18 1 16 0 20 
28 4 20 24 14 23 14 14 14 0 10 5 1 29 20 17 15 13 
7 2 0 12 3 1 11 15 31 8 20 20 23 15 3 14 0 0 
12 12 0 27 20 19 19 12 0 12 16 0 14 4 16 10 15 18 
10 20 20 16 19 29 24 3 23 1 18 7 31 11 31 10 29 0 
16 13 16 16 18 3 21 0 22 3 12 15 13 12 12 13 14 17 
16 12 5 11 13 1 9 7 12 11 19 1 19 13 14 3 19 1 
19 0 11 5 12 5 12 15 3 13 3 14 11 22 21 0 21 2 
12 17 6 10 19 10 18 5 27 4 7 15 16 18 3 17 12 18 
15 24 11 5 10 1 4 14 10 20 3 4 1 6 18 26 11 12 
19 15 16 5 11 0 17 0 26 2 1 7 0 0 24 14 4 0 
11 19 7 12 27 18 13 9 11 4 5 15 1 4 2 19 6 1 
0 12 16 11 18 8 7 19 21 4 29 11 9 12 12 3 15 27 
0 8 7 1 12 0 28 15 0 19 10 1 7 23 12 17 0 18 
6 12 22 7 18 17 16 2 3 12 18 1 8 11 9 1 14 0 
17 11 11 1 19 19 4 19 14 18 28 6 13 12 10 11 12 0 
3 0 17 12 13 14 15 15 25 25 16 2 21 4 24 2 0 0 
15 12 0 24 12 0 23 4 14 16 16 14 19 4 13 17 14 7 
16 10 11 4 15 27 19 3 2 11 19 16 14 2 15 16 12 4 
7 1 8 6 11 10 14 8 6 8 16 19 19 16 24 9 1 25 
25 5 15 4 19 13 26 0 1 10 14 1 29 15 8 16 14 11 
15 2 14 8 18 16 9 0 0 8 10 2 19 14 15 14 19 11 
14 11 28 17 24 10 4 7 19 4 19 19 0 15 19 11 13 10 
22 14 1 0 4 1 4 0 6 8 13 1 18 0 3 16 4 16 
14 16 15 17 28 9 6 8 23 0 22 8 19 0 7 4 24 17 
1 7 14 14 3 14 12 0 9 18 1 7 12 14 13 12 0 12 
26 15 18 2 8 10 1 0 14 5 11 16 3 4 4 19 4 15 
10 7 15 7 16 7 12 0 8 0 15 18 11 27 4 0 3 1 
4 4 20 3 30 13 27 26 19 8 20 2 2 2 11 3 8 15 
10 12 14 18 15 13 4 0 10 10 16 17 17 14 17 5 19 13 
14 4 19 3 26 12 25 11 11 10 6 3 19 12 1 0 4 5 
19 14 10 16 17 16 0 0 1 16 7 3 14 1 10 12 2 7 
0 18 15 8 2 1 15 15 27 6 19 7 26 13 17 0 31 15 
5 16 18 1 23 9 13 19 18 0 20 18 12 0 15 13 9 3 
14 22 9 2 13 10 10 0 10 13 11 16 30 1 3 19 12 0 
7 0 13 14 15 8 15 4 7 1 13 3 12 0 11 6 10 12 
11 9 14 17 4 11 1 12 21 14 22 0 20 1 15 17 15 4 
0 3 1 5 11 1 15 17 20 3 19 11 21 7 4 10 12 2 
27 19 4 13 15 12 22 24 5 11 19 5 11 8 0 2 14 1 
1 0 7 0 12 0 17 4 0 18 9 1 15 12 16 21 11 10 
25 1 12 3 24 13 11 19 13 3 24 4 6 0 26 16 20 15 
7 16 1 0 27 2 3 4 3 16 19 3 19 0 13 25 0 1 
0 14 11 1 21 15 8 3 16 17 28 4 24 20 15 20 17 17 
2 8 9 3 18 15 16 18 13 27 4 2 28 15 15 1 12 15 
2 20 12 27 11 14 12 1 4 3 29 12 18 5 20 13 28 12 
25 16 0 2 10 14 15 16 12 18 14 15 4 8 31 5 8 15 
16 18 14 16 0 8 11 19 15 20 13 2 20 3 20 0 2 13 
19 3 1 11 2 0 4 15 11 4 17 1 15 7 19 15 11 19 
2 3 17 15 1 11 7 13 7 4 27 13 9 26 1 10 20 0 
12 3 2 0 15 15 11 27 4 2 4 14 0 17 16 17 2 13 
12 0 7 24 21 3 18 1 19 12 9 4 4 12 10 1 1 3 
1 14 12 0 11 0 10 2 8 12 0 9 9 11 0 15 15 2 
5 16 11 27 15 16 19 1 0 0 27 2 12 15 20 14 2 3 
20 0 0 2 6 0 12 0 21 16 12 27 9 1 11 24 6 18 
12 8 14 2 16 0 13 15 13 1 15 3 2 0 5 2 8 0 
13 0 12 4 11 15 10 4 28 4 4 11 7 5 8 12 20 19 
10 0 0 6 2 20 5 3 10 2 16 13 4 0 6 19 1 2 
12 8 0 0 27 2 10 20 16 4 7 8 17 8 16 4 4 11 
3 4 1 1 6 11 0 4 12 14 29 1 21 0 11 4 23 14 
12 2 11 7 12 11 15 2 12 5 12 9 2 15 1 0 4 8 
21 0 9 1 13 25 12 3 5 2 14 20 16 12 11 4 1 3 
20 11 16 9 7 0 1 16 12 1 13 10 19 11 0 0 11 3 
2 4 0 18 15 1 16 22 0 14 0 24 16 25 20 14 22 12 
9 12 11 20 19 2 12 2 15 15 14 12 12 16 13 0 18 12 
15 0 15 2 3 31 11 4 16 3 11 17 12 11 19 19 0 0 
3 4 0 9 11 0 0 13 20 2 20 1 0 15 4 4 0 2 
3 14 3 1 3 11 17 0 15 8 12 3 15 3 8 15 14 4 
1 12 13 11 8 4 3 3 15 5 0 0 7 10 12 13 20 1 
9 4 7 3 0 11 4 1 14 17 16 7 3 11 1 19 10 15 
16 0 11 3 10 1 7 1 0 11 12 0 15 21 2 1 1 0 
8 7 7 14 16 1 19 11 27 5 20 16 0 14 8 9 2 1 
10 0 2 0 5 1 12 19 0 9 20 15 0 1 7 5 4 4 
20 12 3 12 12 8 14 7 15 0 6 15 4 6 11 16 3 11 
11 2 11 13 0 3 0 4 15 3 12 0 7 0 4 12 8 1 
24 1 14 14 16 3 15 11 3 2 20 19 19 17 15 16 1 10 
10 7 1 20 17 13 0 1 12 2 1 17 26 13 4 2 16 13 
25 0 5 7 6 0 15 1 14 18 11 11 26 4 1 0 17 4 
0 3 1 11 15 1 28 8 30 0 7 4 15 12 7 16 0 0 
2 0 9 0 15 15 3 22 3 0 18 6 1 16 12 3 9 11 
10 15 9 0 16 7 19 11 6 1 17 15 0 12 14 3 17 4 
3 0 8 0 16 13 18 11 4 11 28 7 7 27 17 18 5 8 
16 12 1 6 17 11 12 2 5 16 16 4 20 13 13 15 1 12 
11 3 8 0 3 2 12 1 10 4 20 1 1 12 8 27 1 4 
14 11 4 13 24 0 14 1 3 11 0 0 14 16 0 17 11 0 
1 8 20 3 3 14 0 1 7 9 12 0 19 0 26 2 13 3 
0 5 4 2 1 0 10 0 0 0 1 9 2 0 9 5 0 0 
11 0 0 11 4 3 4 11 28 12 19 1 13 16 12 0 0 3 
0 15 1 0 6 10 5 0 12 7 0 0 2 2 14 2 15 1 
1 8 11 14 4 12 17 7 17 3 2 18 1 0 2 12 19 11 
0 0 11 2 1 2 4 0 15 0 0 11 0 0 0 1 5 1 
