0 19 19 18 29 20 31 20 28 19 14 31 12 20 11 17 27 16 
3 23 6 28 22 20 31 21 30 25 13 14 23 14 5 16 27 15 
13 28 18 27 16 10 28 26 29 18 31 27 20 20 18 20 31 15 
26 24 29 21 14 19 22 27 16 24 28 31 10 12 8 28 17 21 
21 31 22 30 27 28 16 26 27 21 4 15 16 17 26 27 20 29 
8 25 31 20 29 31 26 12 16 21 17 18 30 29 25 16 14 15 
25 19 21 31 16 27 29 6 19 29 31 16 19 14 27 27 23 29 
16 11 18 16 31 19 14 27 16 11 19 19 20 16 20 15 15 27 
26 15 21 20 11 14 27 19 20 20 16 19 24 29 21 22 28 14 
19 31 26 31 3 19 31 14 15 21 16 19 18 28 28 27 27 26 
25 3 12 31 31 21 19 20 20 27 23 25 15 19 20 19 31 20 
20 17 31 20 15 17 27 29 20 14 25 27 3 23 19 17 18 30 
20 25 13 14 27 14 27 23 21 11 18 13 21 22 27 28 17 16 
28 22 30 11 31 20 25 20 11 31 19 17 20 16 28 14 18 28 
31 27 22 31 16 26 31 27 20 30 15 20 14 30 26 7 21 20 
9 23 31 31 25 11 20 15 27 23 17 10 28 17 31 18 28 20 
19 17 16 31 23 27 30 20 22 31 28 31 29 19 20 13 31 21 
19 23 26 16 24 15 18 29 9 28 26 26 15 27 28 12 11 24 
24 31 27 25 28 24 31 15 27 22 17 28 10 20 17 31 29 19 
21 16 15 31 21 25 31 26 19 30 24 14 28 18 11 28 19 4 
26 27 31 18 16 11 28 20 11 31 27 16 26 23 11 31 16 17 
11 31 19 16 19 29 11 12 10 23 16 18 16 31 16 18 20 8 
12 31 20 19 31 13 31 27 27 2 31 13 30 15 17 17 24 19 
20 26 13 30 27 19 19 20 26 15 12 18 6 24 20 25 15 26 
28 20 26 28 22 10 15 18 29 27 25 19 17 29 27 19 15 16 
24 28 14 19 17 20 18 30 27 31 25 10 14 15 22 27 17 15 
14 31 22 28 16 15 28 9 23 19 26 25 20 19 16 28 28 21 
28 13 28 27 26 19 12 20 22 16 12 31 31 26 27 23 16 20 
20 29 13 18 20 31 19 28 14 21 28 17 13 31 27 3 20 14 
15 31 31 19 22 16 15 30 28 20 31 16 30 17 17 31 16 21 
21 19 25 16 31 27 17 23 28 27 28 12 16 30 28 11 21 30 
22 4 21 28 19 21 20 19 17 11 24 19 15 28 21 16 12 29 
21 31 19 15 19 31 19 24 31 15 18 20 16 20 18 31 18 12 
27 15 18 18 19 21 13 27 29 19 30 12 19 15 31 24 28 19 
18 29 16 24 24 29 15 27 15 13 31 27 31 15 22 18 31 25 
24 18 11 18 18 13 20 16 24 29 26 31 12 15 12 13 19 27 
14 27 28 30 31 31 19 21 9 31 28 22 27 31 26 4 23 17 
28 15 20 26 28 29 21 31 29 31 15 23 29 20 12 31 30 27 
25 16 11 20 20 31 31 19 23 27 20 17 27 25 27 30 31 20 
27 26 15 22 31 23 30 11 26 21 15 16 19 20 16 17 12 18 
1 29 22 31 31 17 16 17 28 31 22 31 31 18 30 30 28 28 
12 20 17 3 2 28 12 30 28 18 31 18 31 4 16 19 11 10 
11 31 31 31 31 31 27 16 28 29 29 16 29 19 21 25 20 31 
16 16 16 19 29 11 12 12 19 22 26 15 19 31 15 21 3 21 
31 21 20 18 27 27 19 31 17 22 28 28 15 30 18 15 27 24 
22 28 12 20 12 12 15 15 5 31 28 16 31 27 19 18 22 20 
16 23 23 31 24 25 31 31 31 18 31 9 17 29 15 23 28 13 
22 26 14 17 12 26 20 15 16 20 31 18 19 20 26 29 13 21 
31 20 11 31 31 30 17 16 23 21 17 31 7 15 18 19 17 24 
20 23 31 31 9 31 19 20 18 14 12 4 15 26 27 9 12 19 
19 13 27 18 15 23 19 31 24 11 27 20 14 27 15 25 19 29 
31 14 27 25 18 25 28 16 21 31 19 31 16 16 15 17 28 24 
23 20 19 31 14 29 28 21 27 29 27 31 25 31 24 28 20 31 
28 30 17 12 21 29 19 26 19 20 28 13 6 22 16 13 24 15 
21 11 22 19 15 28 17 31 12 25 17 31 12 31 27 12 24 15 
22 20 19 19 21 22 16 31 31 16 20 28 16 27 19 18 19 17 
14 29 14 25 21 12 30 16 16 18 31 21 20 28 28 31 31 31 
31 23 19 30 26 14 16 19 31 20 27 19 17 16 10 18 31 18 
12 12 23 16 30 23 27 16 19 23 15 20 31 31 13 28 18 27 
28 7 16 17 31 13 20 17 20 15 17 24 27 20 31 27 16 20 
26 28 31 27 21 19 20 16 20 12 28 31 9 25 27 23 20 16 
15 31 18 19 22 20 26 31 16 19 20 29 16 27 24 28 31 31 
18 20 29 30 19 27 19 31 29 31 18 22 26 31 20 22 23 21 
22 24 21 12 15 27 28 14 28 29 26 18 17 19 31 17 29 17 
26 22 30 12 31 28 28 31 31 25 29 30 31 31 13 28 31 27 
4 21 7 16 13 28 20 19 26 13 30 19 19 20 9 13 15 21 
7 27 30 19 16 17 20 30 15 29 31 20 7 27 25 29 12 16 
22 23 26 24 31 27 21 25 17 31 18 13 28 7 28 28 20 18 
29 17 31 28 28 25 30 26 26 28 31 15 22 25 13 31 20 16 
14 28 19 29 19 12 19 28 20 27 7 18 12 15 31 27 15 21 
26 7 28 11 16 31 16 20 18 30 31 31 20 15 27 31 16 22 
30 28 30 27 22 16 20 11 14 24 27 11 12 28 28 25 20 19 
19 24 18 21 30 22 24 31 26 4 31 31 31 20 18 26 27 4 
17 15 28 19 13 21 28 2 28 15 26 31 17 19 22 9 10 2 
1 16 16 23 31 30 28 19 31 17 19 22 11 19 20 16 14 25 
26 31 29 15 28 18 28 28 19 18 18 11 20 21 31 31 14 11 
26 31 24 27 19 19 22 23 19 12 15 27 31 23 24 31 15 16 
18 15 31 11 19 25 25 22 19 19 31 31 31 20 24 25 22 18 
12 20 18 17 9 21 16 30 31 31 31 24 31 23 31 31 19 27 
28 15 11 8 31 19 10 22 24 31 15 27 26 31 19 30 19 24 
25 16 31 12 28 31 30 26 13 3 15 20 19 28 16 17 31 16 
25 31 18 21 23 20 23 16 11 19 31 28 31 24 24 20 28 31 
27 27 3 16 31 20 20 23 31 31 20 31 26 27 28 29 31 9 
10 27 29 15 12 22 31 15 15 31 20 18 31 31 23 19 28 15 
13 12 18 19 27 24 29 20 20 23 20 11 31 22 9 18 27 23 
19 19 17 19 20 13 19 28 19 29 28 20 28 22 12 30 20 19 
20 20 19 20 18 30 20 26 31 22 25 20 15 28 30 31 24 26 
11 11 29 16 29 31 27 27 12 24 13 17 17 20 23 31 19 20 
15 31 22 31 31 29 31 19 15 11 31 28 29 24 22 20 31 31 
21 14 12 20 27 10 31 26 13 24 27 16 31 20 30 24 30 13 
20 31 24 11 20 27 30 15 31 27 17 17 31 20 23 31 13 31 
13 17 16 16 4 29 31 28 14 31 31 15 12 26 27 18 30 28 
17 13 22 15 28 31 31 31 28 16 28 25 28 31 19 19 31 20 
27 16 15 28 30 31 24 19 24 28 18 19 21 20 25 28 29 29 
11 28 16 20 27 30 19 20 27 31 30 26 31 31 13 28 31 27 
11 27 24 27 19 25 20 27 18 28 28 24 28 22 21 22 27 16 
15 31 11 20 31 20 25 25 31 12 31 16 24 27 24 20 23 31 
12 20 13 31 12 19 31 27 31 27 27 28 28 31 11 31 29 19 
28 19 31 22 20 29 16 29 31 31 20 23 26 30 29 26 31 19 
29 11 18 16 18 27 5 23 6 20 21 30 11 21 15 16 27 19 
12 21 30 20 22 21 31 31 21 28 31 16 17 20 16 22 27 31 
21 31 13 19 31 20 18 29 31 20 27 20 25 29 31 26 31 27 
31 18 16 31 28 31 30 25 15 29 28 28 16 31 16 31 13 20 
16 19 14 31 15 21 15 29 31 31 27 26 11 30 15 19 18 28 
28 30 19 20 17 28 24 21 31 29 26 17 18 20 31 21 28 16 
15 21 23 29 11 21 19 31 31 30 20 13 27 22 31 15 19 18 
19 22 14 25 31 20 15 29 12 22 31 16 28 19 31 18 17 19 
29 19 24 15 28 31 19 15 19 16 31 16 23 12 15 27 18 30 
18 21 27 18 30 31 18 19 19 18 15 26 31 15 31 19 27 21 
3 15 14 8 15 28 31 31 3 15 16 27 20 29 17 20 20 31 
16 25 28 20 16 24 12 31 31 13 4 13 24 27 19 31 29 23 
16 16 18 15 12 27 17 19 19 28 19 31 18 20 31 31 31 21 
19 30 30 18 31 31 20 31 20 27 23 31 31 19 15 18 31 31 
19 20 16 20 31 16 10 30 16 27 28 31 27 27 12 31 16 15 
20 31 30 27 19 31 31 19 26 31 19 27 20 19 18 24 23 29 
19 16 19 31 31 21 19 31 21 31 18 16 26 31 30 31 17 30 
31 31 28 31 30 27 27 28 10 28 24 31 31 26 16 19 31 21 
18 19 7 20 29 25 16 16 12 31 24 27 18 18 19 10 17 20 
26 17 19 31 28 30 18 20 11 19 31 19 31 27 30 31 28 28 
31 25 20 22 19 31 27 19 19 28 29 22 22 16 16 28 30 21 
31 31 27 31 16 27 31 15 27 26 19 24 20 29 19 27 16 16 
27 20 31 16 20 19 31 16 16 31 31 19 31 20 28 31 28 19 
31 12 31 30 26 28 31 31 19 31 31 31 28 18 31 31 31 30 
22 16 24 23 20 19 20 15 25 28 23 31 24 18 18 27 12 27 
15 19 25 17 30 27 31 28 20 25 28 26 20 28 26 24 12 28 
16 20 19 28 19 31 31 27 20 17 31 31 16 31 25 14 18 30 
18 7 31 31 15 29 24 27 29 20 31 20 27 31 23 27 31 28 
15 19 20 21 31 30 13 31 28 18 30 31 26 30 29 29 17 19 
15 22 16 31 16 31 15 23 31 31 17 14 28 31 15 17 31 21 
15 18 27 28 19 15 14 31 30 15 16 31 27 15 25 16 27 21 
24 17 16 31 31 27 14 18 20 31 27 31 17 31 18 31 13 26 
20 15 18 20 19 15 25 31 29 31 20 16 22 31 28 2 15 29 
6 31 29 31 31 19 23 21 31 28 14 31 31 11 19 31 31 20 
24 25 0 31 31 20 22 19 22 18 16 31 28 21 22 19 28 19 
20 23 31 16 31 31 31 12 15 28 31 19 16 25 28 15 30 22 
20 15 23 30 11 31 23 19 18 28 29 21 19 7 28 14 28 28 
17 24 28 28 21 31 15 21 30 24 15 30 20 31 31 31 16 31 
29 20 31 15 28 16 19 21 31 30 19 30 26 15 21 30 29 26 
18 20 19 31 31 31 31 17 27 21 31 31 22 31 27 31 28 31 
13 19 20 29 29 20 26 16 31 27 16 27 30 22 20 15 18 23 
29 15 24 24 28 31 31 23 20 12 21 17 31 19 19 28 31 19 
15 16 31 28 30 21 14 28 28 26 22 31 31 13 31 31 20 13 
21 20 31 26 17 27 27 31 31 31 25 31 19 30 27 28 23 29 
31 17 17 23 11 31 20 15 17 31 27 25 24 18 19 16 27 27 
24 28 11 31 28 20 31 16 23 14 18 30 23 31 29 22 31 21 
19 28 12 27 13 22 27 16 24 20 20 28 31 28 19 16 28 18 
17 16 26 16 31 29 31 31 31 20 23 31 27 24 19 28 28 28 
23 13 19 31 18 26 29 13 27 19 31 20 27 27 18 23 31 28 
20 29 31 18 23 22 20 27 4 19 27 31 29 20 31 15 23 26 
31 19 19 17 18 19 16 15 15 18 15 31 28 13 28 31 31 12 
19 30 11 16 19 16 22 19 15 31 31 19 28 1 31 31 17 11 
20 27 19 28 30 17 14 20 20 25 20 22 11 22 31 27 23 22 
15 31 19 18 17 15 17 15 16 22 31 31 31 24 20 31 18 13 
17 11 3 19 20 27 27 17 31 8 18 23 15 19 14 31 24 12 
15 23 31 28 20 19 25 31 22 19 20 28 21 31 31 31 31 20 
20 12 6 20 6 14 12 14 15 15 1 19 3 16 20 28 13 7 
8 10 18 20 19 31 17 18 31 27 29 16 27 16 30 31 31 31 
17 16 17 4 16 14 15 20 31 22 27 28 21 31 20 15 19 15 
6 18 31 27 23 22 24 15 16 16 31 29 27 28 26 31 22 21 
12 14 18 15 19 17 18 27 18 15 23 31 12 13 31 18 17 18 
